[
  
  {
    "title": "In Search of a Good Way to Learn Programming",
    "url": "/posts/in-search-of-a-good-way-to-learn-programming/",
    "categories": "Programming",
    "tags": "clojure, clojurescript, learning, beginner, programming, book, fulcro",
    "date": "2019-07-24 22:20:00 +0200",
    





    "snippet": "In Search of a Good Way to Learn ProgrammingStarting from scratch is hard. Especially if you are taking the “teach-yourself”approach. This blog post is going to be about what I think, from my beginnersperspective, would be a good approach to learn programming.Enclosed approach, not partialAs you ..."
  },
  
  {
    "title": "Clojure(Script): What do you think?",
    "url": "/posts/clojure(script)-what-do-you-think/",
    "categories": "Programming",
    "tags": "clojure, clojurescript, learning, beginner, programming, book",
    "date": "2019-07-12 00:00:00 +0200",
    





    "snippet": "Clojure(Script): What do You think?A Two-year’s pauseIf you check out the gap between this and the previous article I published you’llnotice that it’s more than two years difference. The truth is that job insecuritydidn’t leave me enough time to focus on learning long-term, so I didn’t think abou..."
  },
  
  {
    "title": "How I Chose a Book to Learn Programming as an Absolute Beginner",
    "url": "/posts/how-i-chose-a-book-to-learn-programming-as-an-absolute-beginner/",
    "categories": "Programming",
    "tags": "python, nixos, tutorial, beginner, programming, book",
    "date": "2017-02-13 22:30:00 +0100",
    





    "snippet": "How I Chose a Book to Learn Programming as an Absolute BeginnerWho would think that finding the right book to learn programming from scratch can be hard?Certainly not me. But as I began to learn to program from various books I constantly found myself giving up afterseveral chapters because the mo..."
  },
  
  {
    "title": "An Unexpected Toolbox for a Beginner Programmer",
    "url": "/posts/an-unexpected-toolbox-for-a-beginner-programmer/",
    "categories": "Programming, Music",
    "tags": "python, nixos, tutorial, github, sands, colemak",
    "date": "2017-02-03 18:30:00 +0100",
    





    "snippet": "An unexpected Toolbox for a Beginner ProgrammerIn this post I want to tell you a little about the setup that I use to write codeand similar stuff (by that I mean HTML and CSS which I don’t really think of as code).This is not going to be a precise tutorial, but more like a story how I started usi..."
  },
  
  {
    "title": "Jekyll setup in NixOS",
    "url": "/posts/jekyll-setup-in-nixos/",
    "categories": "Programming",
    "tags": "jekyll, nixos, tutorial, github",
    "date": "2017-01-31 00:10:00 +0100",
    





    "snippet": "Jekyll setup on NixOS (nix-shell)Hello people. This is my first blog post, and the topic I picked out to talk aboutis how to setup your Jekyll blog on NixOS, because that’s where I had some trouble.I promised myself that I would write about this as soon as I get it running on myconfiguration.The ..."
  }
  
]

